"ID","DATE_CREATED","DATE_MODIFIED","UPDT_ID","NAME","STATUS"
"b4cb07ba-c417-4742-85f2-6a62af1ea71a",2022-03-16 14:05:28.000,2022-03-16 14:05:28.000,a591995f-6da6-46cf-b798-513e5ea68f96,CEO,1
"fcdc611b-016f-4476-b910-dbd937b9e21a",2022-03-16 14:05:28.000,2022-03-16 14:05:28.000,a591995f-6da6-46cf-b798-513e5ea68f96,CFO,1
"ed9aec80-28bf-46fa-b6d5-9886aef5ddfc",2022-03-16 14:05:28.000,2022-03-16 14:05:28.000,a591995f-6da6-46cf-b798-513e5ea68f96,Head Of HR,1