"ID","DATE_CREATED","DATE_MODIFIED","UPDT_ID","GROUP_NAME","GROUP_TYPE","STATUS"
"d04d8535-fd85-4eae-b644-0b80ba8dbe0b",2022-03-16 14:05:28.000,2022-03-16 14:05:28.000,a591995f-6da6-46cf-b798-513e5ea68f96,Editor,EDITOR,1

