"ID","DATE_CREATED","DATE_MODIFIED","UPDT_ID","STATUS","CODE","BRAND_ID","PRODUCT_SIZE_ID","VALVE_SIZE_ID","FEATURE_PRODUCT","OFFER_PRODUCT"
"02e8a1d4-23ec-486e-aa2a-05593001de69","2022-06-21 04:37:48","2022-06-21 04:37:48",a591995f-6da6-46cf-b798-513e5ea68f96,1,BEX1222,ad80e7cb-b671-4da9-88dd-3e49be1882f9,b6448535-d04d-4eae-be0b-0b80ba8dfd85,b6448535-d04d-4eae-be0b-0b80ba8dfd85,1,1
"0432d899-2fda-416c-9327-ed85910b97fe","2022-06-20 06:09:55","2022-06-20 06:09:55",a591995f-6da6-46cf-b798-513e5ea68f96,1,UNI1220,"744ab0ab-5122-4566-80b0-01f3550f6617",b6448535-d04d-4eae-be0b-0b80ba8dfd85,"4d5378ab-8abf-80b4-ab4d-82c90904ba55",0,0
"0fb77979-bd39-42be-bb18-aeec60474f18","2022-06-20 06:08:29","2022-06-20 06:08:29",a591995f-6da6-46cf-b798-513e5ea68f96,1,LAU1222,d69a22e6-587e-4ac8-91fa-54a3b597b821,b6448535-d04d-4eae-be0b-0b80ba8dfd85,b6448535-d04d-4eae-be0b-0b80ba8dfd85,0,0
"139b36d0-dc0e-4d61-869a-e337c092115d","2022-06-20 06:00:18","2022-06-20 06:00:18",a591995f-6da6-46cf-b798-513e5ea68f96,1,BAS1222,f75a02f4-92e8-4752-ae67-f06fae56938f,b6448535-d04d-4eae-be0b-0b80ba8dfd85,b6448535-d04d-4eae-be0b-0b80ba8dfd85,1,0
"15425024-3862-4235-87f6-2b7edf0743b2","2022-06-20 06:09:32","2022-06-20 06:09:32",a591995f-6da6-46cf-b798-513e5ea68f96,1,TOT1220,"4f3c7e78-a109-44e7-a43c-652946baf3ff",b6448535-d04d-4eae-be0b-0b80ba8dfd85,"4d5378ab-8abf-80b4-ab4d-82c90904ba55",1,0
"1d743b15-4a4c-46c8-8144-44f646928cca","2022-06-20 06:07:35","2022-06-20 06:07:35",a591995f-6da6-46cf-b798-513e5ea68f96,1,GGA1222,"0fd2e88f-cea6-4e2e-9b28-bd138b94fca6",b6448535-d04d-4eae-be0b-0b80ba8dfd85,b6448535-d04d-4eae-be0b-0b80ba8dfd85,0,1
"1fbf2e18-2e79-4e7f-8994-ee257cc2e5e2","2022-06-20 06:09:17","2022-06-20 06:09:17",a591995f-6da6-46cf-b798-513e5ea68f96,1,PET1222,"84966a5c-1937-4532-9dc1-8c7b99151ca3",b6448535-d04d-4eae-be0b-0b80ba8dfd85,b6448535-d04d-4eae-be0b-0b80ba8dfd85,0,1
"2321dacc-2471-488f-8d84-d9317b07ef50","2022-06-20 06:00:06","2022-06-20 06:00:06",a591995f-6da6-46cf-b798-513e5ea68f96,1,BAS1220,f75a02f4-92e8-4752-ae67-f06fae56938f,b6448535-d04d-4eae-be0b-0b80ba8dfd85,"4d5378ab-8abf-80b4-ab4d-82c90904ba55",0,1
"3dd5a810-1026-4056-9cf9-ea5dcb69cf12","2022-06-20 06:08:53","2022-06-20 06:08:53",a591995f-6da6-46cf-b798-513e5ea68f96,1,OME1222,"82794fa9-7545-48ac-822c-c2093228e707",b6448535-d04d-4eae-be0b-0b80ba8dfd85,b6448535-d04d-4eae-be0b-0b80ba8dfd85,1,0
"45c82c5c-056c-4dc0-99d4-7ec39ebea339","2022-06-20 06:01:59","2022-06-20 06:01:59",a591995f-6da6-46cf-b798-513e5ea68f96,1,BEX1220,ad80e7cb-b671-4da9-88dd-3e49be1882f9,b6448535-d04d-4eae-be0b-0b80ba8dfd85,"4d5378ab-8abf-80b4-ab4d-82c90904ba55",1,0
"60c48eef-6842-41fb-aa7a-d3a8fb4bc110","2022-06-20 06:07:52","2022-06-20 06:07:52",a591995f-6da6-46cf-b798-513e5ea68f96,1,JAM1220,"2f5838e5-e14c-4cff-aeed-993b5468374d",b6448535-d04d-4eae-be0b-0b80ba8dfd85,"4d5378ab-8abf-80b4-ab4d-82c90904ba55",1,0
"7741f6b4-4d66-4fb3-bdd9-d504b4b4466d","2022-06-20 06:10:10","2022-06-20 06:10:10",a591995f-6da6-46cf-b798-513e5ea68f96,1,UNI1222,"744ab0ab-5122-4566-80b0-01f3550f6617",b6448535-d04d-4eae-be0b-0b80ba8dfd85,b6448535-d04d-4eae-be0b-0b80ba8dfd85,0,1
"7aef44a3-c3fa-4e58-a3b6-23941e406090","2022-06-20 06:09:04","2022-06-20 06:09:04",a591995f-6da6-46cf-b798-513e5ea68f96,1,PET1220,"84966a5c-1937-4532-9dc1-8c7b99151ca3",b6448535-d04d-4eae-be0b-0b80ba8dfd85,"4d5378ab-8abf-80b4-ab4d-82c90904ba55",0,1
"7e0b5607-e5cb-42e5-ad5d-8f63c5242c2e","2022-06-20 06:09:42","2022-06-20 06:09:42",a591995f-6da6-46cf-b798-513e5ea68f96,1,TOT1222,"4f3c7e78-a109-44e7-a43c-652946baf3ff",b6448535-d04d-4eae-be0b-0b80ba8dfd85,b6448535-d04d-4eae-be0b-0b80ba8dfd85,0,0
"931c6d05-782f-4700-9830-919eb48f76e5","2022-06-20 06:00:45","2022-06-20 06:00:45",a591995f-6da6-46cf-b798-513e5ea68f96,1,B.M1222,"21071b22-e3b2-4947-944a-bcd811778650",b6448535-d04d-4eae-be0b-0b80ba8dfd85,b6448535-d04d-4eae-be0b-0b80ba8dfd85,0,0
b3170c1a-180a-4d8f-8488-286024a87781,"2022-06-20 06:02:23","2022-06-20 06:02:23",a591995f-6da6-46cf-b798-513e5ea68f96,1,GGA1220,"0fd2e88f-cea6-4e2e-9b28-bd138b94fca6",b6448535-d04d-4eae-be0b-0b80ba8dfd85,"4d5378ab-8abf-80b4-ab4d-82c90904ba55",1,0
b588dd3b-0a2f-4d23-8844-c680523930cf,"2022-06-20 06:08:16","2022-06-20 06:08:16",a591995f-6da6-46cf-b798-513e5ea68f96,1,LAU1220,d69a22e6-587e-4ac8-91fa-54a3b597b821,b6448535-d04d-4eae-be0b-0b80ba8dfd85,"4d5378ab-8abf-80b4-ab4d-82c90904ba55",1,0
d13629b5-735e-410f-8a23-65101296a056,"2022-06-20 06:08:03","2022-06-20 06:08:03",a591995f-6da6-46cf-b798-513e5ea68f96,1,JAM1222,"2f5838e5-e14c-4cff-aeed-993b5468374d",b6448535-d04d-4eae-be0b-0b80ba8dfd85,b6448535-d04d-4eae-be0b-0b80ba8dfd85,1,1
d74cbb09-4079-4dc9-94a5-85eb92a9f228,"2022-06-20 06:08:41","2022-06-20 06:08:41",a591995f-6da6-46cf-b798-513e5ea68f96,1,OME1220,"82794fa9-7545-48ac-822c-c2093228e707",b6448535-d04d-4eae-be0b-0b80ba8dfd85,"4d5378ab-8abf-80b4-ab4d-82c90904ba55",0,0
f4d872bc-7ce4-453d-8983-5083134b40b6,"2022-06-20 06:00:33","2022-06-20 06:00:33",a591995f-6da6-46cf-b798-513e5ea68f96,1,B.M1220,"21071b22-e3b2-4947-944a-bcd811778650",b6448535-d04d-4eae-be0b-0b80ba8dfd85,"4d5378ab-8abf-80b4-ab4d-82c90904ba55",1,0
